{
    "latest": "23.3.2",
    "versions":
    [
        {
            "version": "23.3.2"
        },
        {
            "version": "23.3.1"
        },
        {
            "version": "22.9.1"
        },
        {
            "version": "22.9.0"
        },
        {
            "version": "22.9.0"
        },
        {
            "version": "1.11.1"
        }
    ]
}